Message,   1/31/2017 8:00:45 AM,   SELECT UserName, CONVERT(Password USING latin1) FROM loginifo Where UserName='stw-bo';
---------------------------------------------------------------------------------------
Message,   1/31/2017 8:00:45 AM,   Connection Opened
---------------------------------------------------------------------------------------
Message,   1/31/2017 11:29:01 AM,   SELECT UserName, CONVERT(Password USING latin1) FROM loginifo Where UserName='Moataz.Bahatem';
---------------------------------------------------------------------------------------
Message,   1/31/2017 11:29:01 AM,   Connection Opened
---------------------------------------------------------------------------------------
Exception,   1/31/2017 11:29:03 AM,   The request failed. The underlying connection was closed: Could not establish trust relationship for the SSL/TLS secure channel.
Exception Trace,   1/31/2017 11:29:03 AM,      at Microsoft.Exchange.WebServices.Data.ServiceRequestBase.GetEwsHttpWebResponse(IEwsHttpWebRequest request)
   at Microsoft.Exchange.WebServices.Data.ServiceRequestBase.ValidateAndEmitRequest(IEwsHttpWebRequest& request)
   at Microsoft.Exchange.WebServices.Data.SimpleServiceRequestBase.InternalExecute()
   at Microsoft.Exchange.WebServices.Data.MultiResponseServiceRequest`1.Execute()
   at Microsoft.Exchange.WebServices.Data.ExchangeService.BindToFolder(FolderId folderId, PropertySet propertySet)
   at Microsoft.Exchange.WebServices.Data.ExchangeService.BindToFolder[TFolder](FolderId folderId, PropertySet propertySet)
   at Microsoft.Exchange.WebServices.Data.TasksFolder.Bind(ExchangeService service, WellKnownFolderName name, PropertySet propertySet)
   at AllTasks.GetTasksData(String UserName, String Password, String DomainName) in c:\inetpub\wwwroot\ExchangeIntegration\AllTasks.aspx.cs:line 186
   at AllTasks.Page_Load(Object sender, EventArgs e) in c:\inetpub\wwwroot\ExchangeIntegration\AllTasks.aspx.cs:line 75
---------------------------------------------------------------------------------------
Message,   1/31/2017 2:39:57 PM,   SELECT UserName, CONVERT(Password USING latin1) FROM loginifo Where UserName='nowrin.abdulquadir';
---------------------------------------------------------------------------------------
Message,   1/31/2017 2:39:57 PM,   Connection Opened
---------------------------------------------------------------------------------------
