Message,   6/1/2015 10:58:30 AM,   SELECT UserName, CONVERT(Password USING latin1) FROM loginifo Where UserName='jawaher.alnaqbi';
---------------------------------------------------------------------------------------
Message,   6/1/2015 10:58:31 AM,   Connection Opened
---------------------------------------------------------------------------------------
Message,   6/1/2015 2:17:35 PM,   SELECT UserName, CONVERT(Password USING latin1) FROM loginifo Where UserName='aj-fo';
---------------------------------------------------------------------------------------
Message,   6/1/2015 2:17:35 PM,   Connection Opened
---------------------------------------------------------------------------------------
