Message,   10/24/2016 1:21:13 PM,   SELECT UserName, CONVERT(Password USING latin1) FROM loginifo Where UserName='mahmoud.bayome';
---------------------------------------------------------------------------------------
Message,   10/24/2016 1:21:13 PM,   Connection Opened
---------------------------------------------------------------------------------------
Exception,   10/24/2016 1:21:14 PM,   The request failed. The underlying connection was closed: Could not establish trust relationship for the SSL/TLS secure channel.
Exception Trace,   10/24/2016 1:21:14 PM,      at Microsoft.Exchange.WebServices.Data.ServiceRequestBase.GetEwsHttpWebResponse(IEwsHttpWebRequest request)
   at Microsoft.Exchange.WebServices.Data.ServiceRequestBase.ValidateAndEmitRequest(IEwsHttpWebRequest& request)
   at Microsoft.Exchange.WebServices.Data.SimpleServiceRequestBase.InternalExecute()
   at Microsoft.Exchange.WebServices.Data.MultiResponseServiceRequest`1.Execute()
   at Microsoft.Exchange.WebServices.Data.ExchangeService.BindToFolder(FolderId folderId, PropertySet propertySet)
   at Microsoft.Exchange.WebServices.Data.ExchangeService.BindToFolder[TFolder](FolderId folderId, PropertySet propertySet)
   at Microsoft.Exchange.WebServices.Data.TasksFolder.Bind(ExchangeService service, WellKnownFolderName name, PropertySet propertySet)
   at AllTasks.GetTasksData(String UserName, String Password, String DomainName) in c:\inetpub\wwwroot\ExchangeIntegration\AllTasks.aspx.cs:line 186
   at AllTasks.Page_Load(Object sender, EventArgs e) in c:\inetpub\wwwroot\ExchangeIntegration\AllTasks.aspx.cs:line 75
---------------------------------------------------------------------------------------
