Message,   12/25/2016 7:35:36 AM,   SELECT UserName, CONVERT(Password USING latin1) FROM loginifo Where UserName='shjempost';
---------------------------------------------------------------------------------------
Message,   12/25/2016 7:35:36 AM,   Connection Opened
---------------------------------------------------------------------------------------
Exception,   12/25/2016 7:35:36 AM,   The request failed. The underlying connection was closed: Could not establish trust relationship for the SSL/TLS secure channel.
Exception Trace,   12/25/2016 7:35:36 AM,      at Microsoft.Exchange.WebServices.Data.ServiceRequestBase.GetEwsHttpWebResponse(IEwsHttpWebRequest request)
   at Microsoft.Exchange.WebServices.Data.ServiceRequestBase.ValidateAndEmitRequest(IEwsHttpWebRequest& request)
   at Microsoft.Exchange.WebServices.Data.SimpleServiceRequestBase.InternalExecute()
   at Microsoft.Exchange.WebServices.Data.MultiResponseServiceRequest`1.Execute()
   at Microsoft.Exchange.WebServices.Data.ExchangeService.BindToFolder(FolderId folderId, PropertySet propertySet)
   at Microsoft.Exchange.WebServices.Data.ExchangeService.BindToFolder[TFolder](FolderId folderId, PropertySet propertySet)
   at Microsoft.Exchange.WebServices.Data.TasksFolder.Bind(ExchangeService service, WellKnownFolderName name, PropertySet propertySet)
   at AllTasks.GetTasksData(String UserName, String Password, String DomainName) in c:\inetpub\wwwroot\ExchangeIntegration\AllTasks.aspx.cs:line 186
   at AllTasks.Page_Load(Object sender, EventArgs e) in c:\inetpub\wwwroot\ExchangeIntegration\AllTasks.aspx.cs:line 75
---------------------------------------------------------------------------------------
Message,   12/25/2016 7:35:46 AM,   SELECT * FROM loginifo Where UserName='shjempost';
---------------------------------------------------------------------------------------
Message,   12/25/2016 7:35:46 AM,   Connection Opened
---------------------------------------------------------------------------------------
Message,   12/25/2016 7:35:46 AM,   SELECT UserName, CONVERT(Password USING latin1) FROM loginifo Where UserName='shjempost';
---------------------------------------------------------------------------------------
Message,   12/25/2016 7:35:46 AM,   Connection Opened
---------------------------------------------------------------------------------------
Exception,   12/25/2016 7:35:46 AM,   The request failed. The underlying connection was closed: Could not establish trust relationship for the SSL/TLS secure channel.
Exception Trace,   12/25/2016 7:35:46 AM,      at Microsoft.Exchange.WebServices.Data.ServiceRequestBase.GetEwsHttpWebResponse(IEwsHttpWebRequest request)
   at Microsoft.Exchange.WebServices.Data.ServiceRequestBase.ValidateAndEmitRequest(IEwsHttpWebRequest& request)
   at Microsoft.Exchange.WebServices.Data.SimpleServiceRequestBase.InternalExecute()
   at Microsoft.Exchange.WebServices.Data.MultiResponseServiceRequest`1.Execute()
   at Microsoft.Exchange.WebServices.Data.ExchangeService.BindToFolder(FolderId folderId, PropertySet propertySet)
   at Microsoft.Exchange.WebServices.Data.ExchangeService.BindToFolder[TFolder](FolderId folderId, PropertySet propertySet)
   at Microsoft.Exchange.WebServices.Data.TasksFolder.Bind(ExchangeService service, WellKnownFolderName name, PropertySet propertySet)
   at AllTasks.GetTasksData(String UserName, String Password, String DomainName) in c:\inetpub\wwwroot\ExchangeIntegration\AllTasks.aspx.cs:line 186
   at AllTasks.Page_Load(Object sender, EventArgs e) in c:\inetpub\wwwroot\ExchangeIntegration\AllTasks.aspx.cs:line 75
---------------------------------------------------------------------------------------
Message,   12/25/2016 1:52:25 PM,   SELECT UserName, CONVERT(Password USING latin1) FROM loginifo Where UserName='sunilku';
---------------------------------------------------------------------------------------
Message,   12/25/2016 1:52:26 PM,   Connection Opened
---------------------------------------------------------------------------------------
Exception,   12/25/2016 1:52:26 PM,   The request failed. The underlying connection was closed: Could not establish trust relationship for the SSL/TLS secure channel.
Exception Trace,   12/25/2016 1:52:26 PM,      at Microsoft.Exchange.WebServices.Data.ServiceRequestBase.GetEwsHttpWebResponse(IEwsHttpWebRequest request)
   at Microsoft.Exchange.WebServices.Data.ServiceRequestBase.ValidateAndEmitRequest(IEwsHttpWebRequest& request)
   at Microsoft.Exchange.WebServices.Data.SimpleServiceRequestBase.InternalExecute()
   at Microsoft.Exchange.WebServices.Data.MultiResponseServiceRequest`1.Execute()
   at Microsoft.Exchange.WebServices.Data.ExchangeService.BindToFolder(FolderId folderId, PropertySet propertySet)
   at Microsoft.Exchange.WebServices.Data.ExchangeService.BindToFolder[TFolder](FolderId folderId, PropertySet propertySet)
   at Microsoft.Exchange.WebServices.Data.TasksFolder.Bind(ExchangeService service, WellKnownFolderName name, PropertySet propertySet)
   at AllTasks.GetTasksData(String UserName, String Password, String DomainName) in c:\inetpub\wwwroot\ExchangeIntegration\AllTasks.aspx.cs:line 186
   at AllTasks.Page_Load(Object sender, EventArgs e) in c:\inetpub\wwwroot\ExchangeIntegration\AllTasks.aspx.cs:line 75
---------------------------------------------------------------------------------------
Message,   12/25/2016 2:01:30 PM,   SELECT UserName, CONVERT(Password USING latin1) FROM loginifo Where UserName='Suadha';
---------------------------------------------------------------------------------------
Message,   12/25/2016 2:01:30 PM,   Connection Opened
---------------------------------------------------------------------------------------
