Message,   4/14/2015 3:21:22 PM,   SELECT UserName, CONVERT(Password USING latin1) FROM loginifo Where UserName='rml-bo';
---------------------------------------------------------------------------------------
Message,   4/14/2015 3:21:22 PM,   Connection Opened
---------------------------------------------------------------------------------------
Exception,   4/14/2015 3:21:24 PM,   The request failed. The remote server returned an error: (401) Unauthorized.
Exception Trace,   4/14/2015 3:21:24 PM,      at Microsoft.Exchange.WebServices.Data.ServiceRequestBase.GetEwsHttpWebResponse(IEwsHttpWebRequest request)
   at Microsoft.Exchange.WebServices.Data.ServiceRequestBase.ValidateAndEmitRequest(IEwsHttpWebRequest& request)
   at Microsoft.Exchange.WebServices.Data.SimpleServiceRequestBase.InternalExecute()
   at Microsoft.Exchange.WebServices.Data.MultiResponseServiceRequest`1.Execute()
   at Microsoft.Exchange.WebServices.Data.ExchangeService.BindToFolder(FolderId folderId, PropertySet propertySet)
   at Microsoft.Exchange.WebServices.Data.ExchangeService.BindToFolder[TFolder](FolderId folderId, PropertySet propertySet)
   at Microsoft.Exchange.WebServices.Data.TasksFolder.Bind(ExchangeService service, WellKnownFolderName name, PropertySet propertySet)
   at AllTasks.GetTasksData(String UserName, String Password, String DomainName) in c:\inetpub\wwwroot\ExchangeIntegration\AllTasks.aspx.cs:line 186
   at AllTasks.Page_Load(Object sender, EventArgs e) in c:\inetpub\wwwroot\ExchangeIntegration\AllTasks.aspx.cs:line 75
---------------------------------------------------------------------------------------
